,date_time,time_since_epoch_ns,who,transcript,partial_transcripts
0,1970-01-01 00:00:00,0,Human,hello,
1,1970-01-01 00:00:00,0,Bot,Hello friend. How are you?,
2,1970-01-01 00:00:05,5318934500,Human, I'm very well thank you,
3,1970-01-01 00:00:05,5318934500,Bot,That's great.  How is your day going today?,
4,1970-01-01 00:00:15,14385704500,Human,it's been a good day today very busy,
5,1970-01-01 00:00:15,14385704500,Bot,Excellent. What did you get up to?,
6,1970-01-01 00:00:30,29574943300,Human,I went to a meeting and then write some code for a project and then had coffee with a friend and now he'll,
7,1970-01-01 00:00:30,29581952600,Bot,Really?,
8,1970-01-01 00:00:34,33458702900,Human,yep,
9,1970-01-01 00:00:34,33458702900,Bot,That sounds fascinating to me.  What is for dinner tonight?,
10,1970-01-01 00:00:43,42411539800,Human,I haven't thought that far ahead yet,
11,1970-01-01 00:00:43,42411539800,Bot,"I bet it will be delicious!  So, to the task at hand ...  I would like to ask you some questions about your experience playing the tablet game. Would you be able to answer some questions now?",
12,1970-01-01 00:00:56,56209581800,Human,yep,
13,1970-01-01 00:00:56,56209581800,Bot,Ok. Great. How did you find the game?,
14,1970-01-01 00:01:05,65071471100,Human,the first one was,
15,1970-01-01 00:01:05,65071471100,Bot,Thanks.   Do you have anything else to add?,
16,1970-01-01 00:01:13,73240759500,Human,yes,
17,1970-01-01 00:01:13,73240759500,Bot,"Ok.  Overall, how satisfied were you with the game?  On a scale of 1 to 10.",
18,1970-01-01 00:01:22,81453023000,Human,7,
19,1970-01-01 00:01:22,81453023000,Bot,Moderately high.  Just let me write that answer internally. ,
20,1970-01-01 00:01:22,81453023000,Bot,How successful do you think you were in playing the game?  On a scale of 1 to 10.,
21,1970-01-01 00:01:38,97415816400,Human,I think pretty good,
22,1970-01-01 00:01:38,97415816400,Bot,Would you be able to put that thought in a number form?,
23,1970-01-01 00:01:46,106050837900,Human,7,
24,1970-01-01 00:01:46,106051838800,Bot,High-ish then.  Give me a moment to take that down. ,
25,1970-01-01 00:01:46,106051838800,Bot,Why do you think that you were successful?,
26,1970-01-01 00:02:02,122241498500,Human,I think I'm pretty good at language and reasonably mats,
27,1970-01-01 00:02:02,122241498500,Bot,Ok. Could you explain a little more?,
28,1970-01-01 00:02:10,129349400700,Human,yep sir,
29,1970-01-01 00:02:10,129349400700,Bot,Ok. Did you like playing the game? Yes or no.,
30,1970-01-01 00:02:15,135181036900,Human,yes,
31,1970-01-01 00:02:15,135181036900,Bot,Ok.  Give me a moment to take that down. ,
32,1970-01-01 00:02:15,135181036900,Bot,Could you tell me what you liked about the game?,
33,1970-01-01 00:02:27,146343598900,Human,it was mentally stimulating,
34,1970-01-01 00:02:27,146343598900,Bot,Ok. Would you recommend this game to others? Yes or no.,
35,1970-01-01 00:02:34,154103124700,Human,yes,
36,1970-01-01 00:02:34,154103124700,Bot,Right.  Just let me remember that. ,
37,1970-01-01 00:02:34,154103124700,Bot,Can you tell me why?,
38,1970-01-01 00:02:46,165690439400,Human,I think it's good to practice language,
39,1970-01-01 00:02:46,165690439400,Bot,"Ok, thanks. Could you suggest some ways that the game could be improved?",
40,1970-01-01 00:02:55,174899130400,Human,it was the perfect game,
41,1970-01-01 00:02:55,174899130400,Bot,"Ok, thanks.  Would you buy the game if it was available as an app? Yes or no.",
42,1970-01-01 00:03:09,188409337200,Human,REPROMPT,
43,1970-01-01 00:03:09,188409337200,Bot,Did you hear me? Would you like me to repeat that?,
44,1970-01-01 00:03:15,194651738500,Human,no that's okay,
45,1970-01-01 00:03:15,194651738500,Bot,Ok.  Would you buy the game if it was available as an app? Yes or no.,
46,1970-01-01 00:03:22,202175397600,Human,night,
47,1970-01-01 00:03:22,202175397600,Bot,I can only record a yes or no for this answer.,
48,1970-01-01 00:03:27,207310437800,Human,night,
49,1970-01-01 00:03:27,207310437800,Bot,I can only record a yes or no for this answer.,
50,1970-01-01 00:03:34,213450894300,Human,yes,
51,1970-01-01 00:03:34,213450894300,Bot,Sure.  Give me a sec to take that down. ,
52,1970-01-01 00:03:34,213450894300,Bot,Can you tell me why?,
53,1970-01-01 00:03:46,225929698800,Human,I thought it was too simple to Patches,
54,1970-01-01 00:03:46,225929698800,Bot,"Ok, thanks. How easy do you think the game was?  On a scale of 1 to 10.",
55,1970-01-01 00:03:56,236206770800,Human,9,
56,1970-01-01 00:03:56,236206770800,Bot,Really high.  Give me a sec to take that down. ,
57,1970-01-01 00:03:56,236206770800,Bot,What do you think made the game easy?,
58,1970-01-01 00:04:11,250698412700,Human,it was very simple and the instructions with a Cleo,
59,1970-01-01 00:04:11,250698412700,Bot,"Right, that makes sense. Would you be happy to play this game on a regular basis? Yes or no.",
60,1970-01-01 00:04:43,282711952100,Human,night,
61,1970-01-01 00:04:43,282711952100,Bot,I can only record a yes or no for this answer.,
62,1970-01-01 00:04:54,293647643300,Human,REPROMPT,
63,1970-01-01 00:04:54,293647643300,Bot,Could you hear me? Would you like me to repeat that?,
64,1970-01-01 00:04:59,299094501600,Human,yes,
65,1970-01-01 00:04:59,299094501600,Bot,Ok. Would you be happy to play this game on a regular basis? Yes or no.,
66,1970-01-01 00:05:07,307309762100,Human,9,
67,1970-01-01 00:05:07,307309762100,Bot,I can only record a yes or no for this answer.,
68,1970-01-01 00:05:13,313054449100,Human,yes,
69,1970-01-01 00:05:13,313054449100,Bot,Ok.  Just let me remember that. ,
70,1970-01-01 00:05:13,313054449100,Bot,Can you tell me why?,
71,1970-01-01 00:05:28,327767962900,Human,it was,
72,1970-01-01 00:05:28,327767962900,Bot,"Ok, thanks. How complex was it to play the game?  On a scale of 1 to 10.",
73,1970-01-01 00:05:38,337837156800,Human,2,
74,1970-01-01 00:05:38,337837156800,Bot,Pretty low then.  Give me a sec to take that down. ,
75,1970-01-01 00:05:38,337837156800,Bot,How hard was it to learn how to use the game?  On a scale of 1 to 10.,
76,1970-01-01 00:05:54,353734987400,Human,3,
77,1970-01-01 00:05:54,353734987400,Bot,"Ok, that's rather low.  Just let me remember that. ",
78,1970-01-01 00:05:54,353734987400,Bot,What did you have to learn to use the game?,
79,1970-01-01 00:06:09,369291015300,Human,add to learn to drag the word segments to the right place,
80,1970-01-01 00:06:09,369292015000,Bot,Do you have anything else to add?,
81,1970-01-01 00:06:14,374150213900,Human,nope,
82,1970-01-01 00:06:14,374150213900,Bot,Let's go to the next question.  How awkward was the game to use?  On a scale of 1 to 10.,
83,1970-01-01 00:06:23,383270952700,Human,at 2,
84,1970-01-01 00:06:23,383271952800,Bot,Pretty low then.  Give me a moment to take that down. ,
85,1970-01-01 00:06:23,383271952800,Bot,What made using the game straightforward?,
86,1970-01-01 00:06:37,396337417700,Human,I was very simple and not very distracting,
87,1970-01-01 00:06:37,396337417700,Bot,Could you give some more information?,
88,1970-01-01 00:06:50,409849623800,Human,it was just very yet,
89,1970-01-01 00:06:50,409849623800,Bot,Ok. Let's move on.  How confident did you feel playing the game?  On a scale of 1 to 10.,
90,1970-01-01 00:07:01,420466500400,Human,6,
91,1970-01-01 00:07:01,420466500400,Bot,Pretty average.  Give me a sec to take that down. ,
92,1970-01-01 00:07:01,420466500400,Bot,What made you feel confident about playing the game?,
93,1970-01-01 00:07:24,443394277100,Human,it was I was getting the woods correct for most the time there was one word that I couldn't get with correct because I accidentally use some of the word components,
94,1970-01-01 00:07:24,443394277100,Bot,Do you have anything else to add?,
95,1970-01-01 00:07:34,453643366200,Human,REPROMPT,
96,1970-01-01 00:07:34,453643366200,Bot,Lets move on. We're all done! Thanks for doing my survey.,
