,robot,form,robot_words,form_words
0,the game was at first it was hard to find\n grab,"The game was a fascinating one, eventually, I got to see the pattern of how the numbers increased and decreased",11,20
1,Diana Charlie\nREPROMPT\nyes please\n10,9,3,1
2,hey I'll seven,8,3,1
3,well I got I got I got three wrong thing out of a 7 questions\nMargate I got most of the questions right I got most of the words correctly,"Towards the end of the game, I realized the cards were following a certain pattern",29,15
4, but\nyes,Yes,2,1
5,yeah the game is,"The game was a fun one, and understanding that there was a pattern to the game made it fun, because in the 4th and 5th round, I started trying to figure out if my guess of the pattern the game followed was correct. ",4,44
6,yes I will,Yes,3,1
7,is a good cognitive game and helps you to think wall and to find things around and Elsa Elsa spelling,Most people enjoy playing cognitive games to help them fill their spare time while still enhancing themselves and also relaxing at the same time,20,24
8,I guess I think so far the game is okay to wait he's much and we can have in prison levels and so far so good. It's beautiful,"To make it harder, multiple patterns within a game session can be implemented; meaning that between the 5 or more rounds of the game session, the user has to identify 2 or more patterns and guess if that particular round of the game is using that pattern.
This increases the challenge of the game, and makes it interactive when multiple people are trying to figure out the patterns of the game together.",28,72
9,yes,Yes,1,1
10,well not for me but for a young child who is trying some who is just in school I want me to be a wonderful way to help a child learn English language and spelling,"I do not play games on my own much, but games are a wonderful way to bond with friends and family.
And this kind of game fosters communication and team effort to identify all patterns of the game",35,38
11,7,6,1,1
12,experience and familiarity with words,"The game was not relatively easy. But as one continues to play through the rounds, the patterns begins to reveal itself and that makes the game relatively easy in the long run",5,32
13,yes,Yes,1,1
14,I need is a good way to ease stress time to relieve stress and no one can play with friends on very high-level still loves her\nREPROMPT\nyes please\nokay I said is a good game that that helps to relieve stress\nplay a game also,Same as why I would buy the game. To help start and sustain a conversation with friends or family,42,19
15,fall\nREPROMPT\nyes\nREPROMPT\nyes\ntrain\n3,8,1,1
16,,"The initial mindset that the game is completely random, and that success in the game is completely determined by luck.",0,20
17,REPROMPT\nyes\n3,3,1,1
18,just a the interface and knowing how to speak and match the pieces of the pieces of words together\nyes I can,Just to click on the first card and guess if the next card's number will be greater than or less than the previous card's number,21,25
19,2,4,1,1
20,open up an English speaker so getting so understand it was was not so I\nnot at all,It was tasking but fun also,17,6
21,7,7,1,1
22,well since you're familiar familiar language I just had to juggle around my head for forward that matches the clues\nnot at all,"Well, I just wanted to have fun, but then I noticed the pattern and then I wanted to get a fairly high score",22,23
