,robot,form,robot_words,form_words
0,it was good\n I found it an interesting game and I was trying to find out whether there was Patton's to follow herbal and like if there's any strategy to the game but I think that was and the point-scoring was a little bit confused,"I found this game really fun to play as it used my knowledge about how good I can form words using letter assemblages and it also had a time limit to put presson to make quick decisions or move on, allowing me to create a strategy  ",45,47
1, aa607\n at 7,9,4,1
2, 8,9,2,1
3,because I found it quite easy and moved quite easy\n because I understood the instructions very well and after the first go at playing it was pretty simple as hell at Outlet,I got all but one word wrong in the time limit and felt my strategy was working ,32,18
4, yes,Yes,2,1
5, I liked that you had to use like strategy in your brain to find out like to decide whether the number would be higher or lower,I found myself drawing on grammical knowledge ,27,8
6,REPROMPT\nyes\n no,Yes,2,1
7, because i n e at the end of the game I realize that I don't think there is many patents to it and therefore I wasn't as satisfied as I was in the beginning and I initially thought that was some kind of strategy or outcome or right or wrong through yeah\nthat's all,Its fun and informing,54,4
8, I increase the complexity and may be important some more likes to,Better words for the explanation of the word ,13,9
9, Nar\n no,Yes,3,1
10,because I don't feel like I learned anything or I was I didn't feel as impressed with myself at the end of the game or if I needed to improve small or not,Because i found it fun and informing and feel like ti could help boost my brain and grammer,33,18
11, repeat\n 5,6,3,1
12, not having any strategy,being able to eliminate the amount of options as you made words,5,12
13,nor\n nor\n nor\n Nar\n North\n nor\n yes,Yes,7,1
14,REPROMPT\nyes\n nor,"easy, fun engaging and I feel like it is good for me ",2,13
15, 3,7,2,1
16,,It depended on how much vocabulary you had and could collate the word,0,13
17, 3,3,2,1
18, a tablet\n tablet and some instructions,Instructions ,7,2
19, 2,7,2,1
20,the instructions and simple simple movements\n no.,Moving letters to line was awkward ,7,7
21, 5,8,2,1
22, knowing that\n figuring out that it was our laid by chance that I would,That I was able to move through it and create strategy easily ,15,13
